Place,Name,Sex,BirthDate,Equipment,Division,BodyweightKg,WeightClassKg,Squat1Kg,Squat2Kg,Squat3Kg,Best3SquatKg,Bench1Kg,Bench2Kg,Bench3Kg,Best3BenchKg,Deadlift1Kg,Deadlift2Kg,Deadlift3Kg,Best3DeadliftKg,TotalKg,Event
1,Jacopo Santangelo,M,,Raw,Senior,58.95,59,185,192.5,-200,192.5,102.5,-107.5,-107.5,102.5,210,223.5,-230,223.5,518.5,SBD
2,Bryan Brunetti,M,,Raw,Junior,57.28,59,152.5,157.5,-162.5,157.5,122.5,127.5,-133,127.5,175,185,195,195,480,SBD
1,Andrea Salaris,M,,Raw,Senior,65.85,66,215,225.5,231,231,125,-132.5,132.5,132.5,220,232.5,-242.5,232.5,596,SBD
2,Valerio Nunziata,M,,Raw,Junior,65.96,66,185,192.5,197.5,197.5,130,135,140,140,240,250,-259,250,587.5,SBD
3,Alessandr Pastorello,M,,Raw,Sub-Junior,66,66,190,197.5,202.5,202.5,125,130,132.5,132.5,240,250,-262,250,585,SBD
4,Matteo Nembri,M,,Raw,Junior,64.96,66,180,187.5,195,195,115,120,125,125,225,240,245,245,565,SBD
5,Stefano Caneo,M,,Raw,Senior,65.91,66,180,190,-202.5,190,120,127.5,130,130,215,230,240,240,560,SBD
6,Luca Salani,M,,Raw,Senior,64.39,66,192.5,200,207.5,207.5,115,120,-122.5,120,200,210,217.5,217.5,545,SBD
7,Christian Nella Di,M,,Raw,Junior,65.89,66,190,200,-207.5,200,102.5,110,112.5,112.5,205,220,-232.5,220,532.5,SBD
8,Gabriele Nembri,M,,Raw,Junior,64.6,66,170,180,190,190,100,105,-110,105,210,222.5,232.5,232.5,527.5,SBD
9,Giorgio Riga,M,,Raw,Junior,65.31,66,185,195,-205,195,85,90,-95,90,200,210,220,220,505,SBD
1,Riccardo Angelini,M,,Raw,Senior,73.97,74,220,235,242.5,242.5,160,165,170,170,220,240,250,250,662.5,SBD
2,Francesco Bosari,M,,Raw,Senior,72.67,74,217.5,230,237.5,237.5,160,170,-175.5,170,225,-235,245,245,652.5,SBD
3,Francesco Boccasile,M,,Raw,Senior,73.65,74,190,197.5,-205,197.5,-155,155,162.5,162.5,270,284,287.5,287.5,647.5,SBD
4,Alberto Bettarel,M,,Raw,Senior,73.4,74,215,227.5,237.5,237.5,150,160,165,165,215,232.5,242.5,242.5,645,SBD
5,Alessandro Barbero #1,M,,Raw,Sub-Junior,73.83,74,202.5,212.5,222.5,222.5,120,125,130,130,250,262.5,-300,262.5,615,SBD
6,Federico Disaro',M,,Raw,Senior,73.41,74,217.5,-227.5,-230,217.5,147.5,150,-152.5,150,232.5,-242.5,-242.5,232.5,600,SBD
7,Cosimo Campolmi,M,,Raw,Senior,73.41,74,210,-217.5,222.5,222.5,-130,130,-140,130,230,240,-247.5,240,592.5,SBD
1,Matteo Richichi,M,,Raw,Junior,82.25,83,250,262.5,270,270,-160,160,167.5,167.5,265,282.5,-300,282.5,720,SBD
2,Alessandro Messina,M,,Raw,Senior,80.99,83,-232.5,237.5,-245,237.5,160,-165,-165,160,295,307.5,-322.5,307.5,705,SBD
3,Federico Tosca,M,,Raw,Senior,81.46,83,-235,235,245,245,182.5,187.5,-192.5,187.5,262.5,-272.5,-272.5,262.5,695,SBD
4,Mattia Bardella,M,,Raw,Senior,82.57,83,220,230,237.5,237.5,-160,160,170,170,260,280,-290,280,687.5,SBD
5,Massimiliano Buccioni,M,,Raw,Master I,82.52,83,237.5,-252.5,257.5,257.5,137.5,145,150,150,250,270,277.5,277.5,685,SBD
6,Massimo Primativo,M,,Raw,Senior,79.73,83,210,225,237.5,237.5,137.5,142.5,147.5,147.5,265,280,290,290,675,SBD
7,Alberto Zaramella,M,,Raw,Senior,82.5,83,-210,225,235,235,130,140,147.5,147.5,250,270,290,290,672.5,SBD
8,Walter Piccione,M,,Raw,Senior,82.9,83,215,230,-235,230,145,150,155,155,285,-295,-300,285,670,SBD
9,Federico Sacco,M,,Raw,Senior,82.03,83,-217.5,230,237.5,237.5,142.5,152.5,-160,152.5,230,-250,-255,230,620,SBD
10,Simone Irrera,M,,Raw,Senior,79.34,83,210,222.5,-232.5,222.5,152.5,160,-162.5,160,220,-230,-230,220,602.5,SBD
1,Andrea Cicero,M,,Raw,Junior,92.85,93,-260,265,275,275,180,187.5,-195,187.5,287.5,305,312.5,312.5,775,SBD
2,Edoardo Mazzucchielli,M,,Raw,Junior,85.48,93,270,280,287.5,287.5,162.5,170,175,175,290,307.5,-312.5,307.5,770,SBD
3,Lorenzo Lupo,M,,Raw,Senior,91.9,93,272.5,282.5,287.5,287.5,175,182.5,187.5,187.5,280,292.5,-297.5,292.5,767.5,SBD
4,Carlo Calabrese,M,,Raw,Senior,92.82,93,265,-275,-275,265,132.5,135,,135,320,340,357.5,357.5,757.5,SBD
5,Massimo Burattin,M,,Raw,Senior,92.55,93,270,285,-290.5,285,175,-182.5,-182.5,175,275,295,-307.5,295,755,SBD
6,Mirko Artosi,M,,Raw,Senior,93,93,255,270,280,280,150,157.5,160,160,275,290,305,305,745,SBD
7,Umber Luca Angrisano,M,,Raw,Junior,92.58,93,245,260,270,270,145,150,-155,150,280,300,315,315,735,SBD
8,Enrico Pravato,M,,Raw,Junior,93,93,240,252.5,262.5,262.5,160,167.5,172.5,172.5,275,287.5,300,300,735,SBD
9,Gianluca Martino,M,,Raw,Senior,93,93,250,260,267.5,267.5,162.5,170,172.5,172.5,270,280,-290,280,720,SBD
10,Marco Gelmini,M,,Raw,Senior,91.85,93,230,240,250,250,165,172.5,-180,172.5,275,295,-315,295,717.5,SBD
11,Domingo Poliandri,M,,Raw,Senior,91.24,93,230,-242.5,250,250,160,170,-180,170,265,277.5,285,285,705,SBD
12,Nicolas Bossetti,M,,Raw,Junior,90.51,93,235,247.5,255,255,150,157.5,-165,157.5,240,260,270,270,682.5,SBD
1,Youssuf Adlani El,M,,Raw,Senior,102.49,105,275,285,295,295,160,167.5,170,170,280,-295,302.5,302.5,767.5,SBD
2,Salvatore M Cardillo,M,,Raw,Junior,104.21,105,255,272.5,-277.5,272.5,170,180,187.5,187.5,270,287.5,302.5,302.5,762.5,SBD
3,Gabriele Verga,M,,Raw,Senior,104.48,105,-245,255,265,265,180,-190,-190,180,287.5,307.5,317.5,317.5,762.5,SBD
4,Matteo Marzolla,M,,Raw,Junior,96.16,105,255,262.5,272.5,272.5,-152.5,152.5,,152.5,285,300,327.5,327.5,752.5,SBD
5,Stefano Allen,M,,Raw,Senior,103.59,105,260,-270,275,275,165,170,-175,170,292.5,307.5,-312.5,307.5,752.5,SBD
6,Vincenzo Conigliaro,M,,Raw,Junior,104.95,105,270,282.5,292.5,292.5,147.5,155,-157.5,155,290,305,-312.5,305,752.5,SBD
7,Carlo Chiavenna,M,,Raw,Master I,102.14,105,230,240,245,245,160,165,-167.5,165,275,290,297.5,297.5,707.5,SBD
8,Davide Bettiol,M,,Raw,Senior,103.09,105,230,245,255,255,132.5,140,,140,295,-310,-310,295,690,SBD
9,Luca Lombardi,M,,Raw,Senior,95.83,105,210,227.5,240,240,140,147.5,-155,147.5,250,265,-275,265,652.5,SBD
10,Ric Eccher Montanelli,M,,Raw,Junior,97.77,105,170,,,170,100,,,100,170,,,170,440,SBD
1,Francesco Pelizza,M,,Raw,Senior,120,120,260,275,282.5,282.5,180,190,-200,190,305,315,-325,315,787.5,SBD
2,Elias Lovo,M,,Raw,Senior,115.01,120,267.5,282.5,-290,282.5,145,-152.5,152.5,152.5,280,300,310,310,745,SBD
3,Davide Bonetto,M,,Raw,Senior,118.99,120,240,250,265,265,160,170,175,175,270,290,300,300,740,SBD
4,Andrea Vitiello,M,,Raw,Senior,118.78,120,265,275,285,285,157.5,165,-170,165,270,285,-300,285,735,SBD
5,And Carmine Esposito,M,,Raw,Junior,113.63,120,275,-295,-295,275,137.5,142.5,147.5,147.5,280,297.5,-322.5,297.5,720,SBD
6,Riccardo Meloncelli,M,,Raw,Junior,118.24,120,230,245,255,255,150,155,160,160,280,300,-320,300,715,SBD
7,Olden Thames,M,,Raw,Senior,112.53,120,237.5,250,255,255,-185,185,-195,185,245,260,-275,260,700,SBD
8,Benedetto Tognolli,M,,Raw,Senior,114.95,120,245,260,272.5,272.5,-140,147.5,155,155,240,255,-265,255,682.5,SBD
9,Manuel Vilasco,M,,Raw,Senior,117.88,120,252.5,265,275,275,157.5,-165,-165,157.5,237.5,250,-257.5,250,682.5,SBD
1,Gianluca Galletto,M,,Raw,Senior,125.64,120+,265,280,290,290,180,190,195,195,280,295,305,305,790,SBD
2,Davide Nicolin,M,,Raw,Senior,123.93,120+,240,-255,255,255,195,205,-212.5,205,290,-292.5,307.5,307.5,767.5,SBD
3,Antonio Furioso,M,,Raw,Senior,155.9,120+,270,280,-290,280,180,187.5,-192.5,187.5,285,-300,-305,285,752.5,SBD
DQ,Mattia Cravedi,M,,Raw,Senior,153.3,120+,,,,,,,,,,,,,,SBD
